\override Score.Accidental.id = #accidental-id
\override Score.AccidentalCautionary.id = #accidentalcautionary-id
\override Score.AccidentalPlacement.id = #accidentalplacement-id
\override Score.AccidentalSuggestion.id = #accidentalsuggestion-id
\override Score.Ambitus.id = #ambitus-id
\override Score.AmbitusAccidental.id = #ambitusaccidental-id
\override Score.AmbitusLine.id = #ambitusline-id
\override Score.AmbitusNoteHead.id = #ambitusnotehead-id
\override Score.Arpeggio.id = #arpeggio-id
\override Score.BalloonTextItem.id = #balloontextitem-id
\override Score.BarLine.id = #barline-id
\override Score.BarNumber.id = #barnumber-id
\override Score.BassFigure.id = #bassfigure-id
\override Score.BassFigureAlignment.id = #bassfigurealignment-id
\override Score.BassFigureAlignmentPositioning.id = #bassfigurealignmentpositioning-id
\override Score.BassFigureBracket.id = #bassfigurebracket-id
\override Score.BassFigureContinuation.id = #bassfigurecontinuation-id
\override Score.BassFigureLine.id = #bassfigureline-id
\override Score.Beam.id = #beam-id
\override Score.BendAfter.id = #bendafter-id
\override Score.BreakAlignGroup.id = #breakaligngroup-id
\override Score.BreakAlignment.id = #breakalignment-id
\override Score.BreathingSign.id = #breathingsign-id
\override Score.ChordName.id = #chordname-id
\override Score.Clef.id = #clef-id
\override Score.ClefModifier.id = #clefmodifier-id
\override Score.ClusterSpanner.id = #clusterspanner-id
\override Score.ClusterSpannerBeacon.id = #clusterspannerbeacon-id
\override Score.CombineTextScript.id = #combinetextscript-id
\override Score.CueClef.id = #cueclef-id
\override Score.CueEndClef.id = #cueendclef-id
\override Score.Custos.id = #custos-id
\override Score.DotColumn.id = #dotcolumn-id
\override Score.Dots.id = #dots-id
\override Score.DoublePercentRepeat.id = #doublepercentrepeat-id
\override Score.DoublePercentRepeatCounter.id = #doublepercentrepeatcounter-id
\override Score.DoubleRepeatSlash.id = #doublerepeatslash-id
\override Score.DynamicLineSpanner.id = #dynamiclinespanner-id
\override Score.DynamicText.id = #dynamictext-id
\override Score.DynamicTextSpanner.id = #dynamictextspanner-id
\override Score.Episema.id = #episema-id
\override Score.Fingering.id = #fingering-id
\override Score.FingeringColumn.id = #fingeringcolumn-id
\override Score.Flag.id = #flag-id
\override Score.FootnoteItem.id = #footnoteitem-id
\override Score.FootnoteSpanner.id = #footnotespanner-id
\override Score.FretBoard.id = #fretboard-id
\override Score.Glissando.id = #glissando-id
\override Score.GraceSpacing.id = #gracespacing-id
\override Score.GridLine.id = #gridline-id
\override Score.GridPoint.id = #gridpoint-id
\override Score.Hairpin.id = #hairpin-id
\override Score.HorizontalBracket.id = #horizontalbracket-id
\override Score.InstrumentName.id = #instrumentname-id
\override Score.InstrumentSwitch.id = #instrumentswitch-id
\override Score.KeyCancellation.id = #keycancellation-id
\override Score.KeySignature.id = #keysignature-id
\override Score.KievanLigature.id = #kievanligature-id
\override Score.LaissezVibrerTie.id = #laissezvibrertie-id
\override Score.LaissezVibrerTieColumn.id = #laissezvibrertiecolumn-id
\override Score.LedgerLineSpanner.id = #ledgerlinespanner-id
\override Score.LeftEdge.id = #leftedge-id
\override Score.LigatureBracket.id = #ligaturebracket-id
\override Score.LyricExtender.id = #lyricextender-id
\override Score.LyricHyphen.id = #lyrichyphen-id
\override Score.LyricSpace.id = #lyricspace-id
\override Score.LyricText.id = #lyrictext-id
\override Score.MeasureCounter.id = #measurecounter-id
\override Score.MeasureGrouping.id = #measuregrouping-id
\override Score.MelodyItem.id = #melodyitem-id
\override Score.MensuralLigature.id = #mensuralligature-id
\override Score.MetronomeMark.id = #metronomemark-id
\override Score.MultiMeasureRest.id = #multimeasurerest-id
\override Score.MultiMeasureRestNumber.id = #multimeasurerestnumber-id
\override Score.MultiMeasureRestText.id = #multimeasureresttext-id
\override Score.NonMusicalPaperColumn.id = #nonmusicalpapercolumn-id
\override Score.NoteCollision.id = #notecollision-id
\override Score.NoteColumn.id = #notecolumn-id
\override Score.NoteHead.id = #notehead-id
\override Score.NoteName.id = #notename-id
\override Score.NoteSpacing.id = #notespacing-id
\override Score.OttavaBracket.id = #ottavabracket-id
\override Score.PaperColumn.id = #papercolumn-id
\override Score.ParenthesesItem.id = #parenthesesitem-id
\override Score.PercentRepeat.id = #percentrepeat-id
\override Score.PercentRepeatCounter.id = #percentrepeatcounter-id
\override Score.PhrasingSlur.id = #phrasingslur-id
\override Score.PianoPedalBracket.id = #pianopedalbracket-id
\override Score.RehearsalMark.id = #rehearsalmark-id
\override Score.RepeatSlash.id = #repeatslash-id
\override Score.RepeatTie.id = #repeattie-id
\override Score.RepeatTieColumn.id = #repeattiecolumn-id
\override Score.Rest.id = #rest-id
\override Score.RestCollision.id = #restcollision-id
\override Score.Script.id = #script-id
\override Score.ScriptColumn.id = #scriptcolumn-id
\override Score.ScriptRow.id = #scriptrow-id
\override Score.Slur.id = #slur-id
\override Score.SostenutoPedal.id = #sostenutopedal-id
\override Score.SostenutoPedalLineSpanner.id = #sostenutopedallinespanner-id
\override Score.SpacingSpanner.id = #spacingspanner-id
\override Score.SpanBar.id = #spanbar-id
\override Score.SpanBarStub.id = #spanbarstub-id
\override Score.StaffGrouper.id = #staffgrouper-id
\override Score.StaffSpacing.id = #staffspacing-id
\override Score.StaffSymbol.id = #staffsymbol-id
\override Score.StanzaNumber.id = #stanzanumber-id
\override Score.Stem.id = #stem-id
\override Score.StemStub.id = #stemstub-id
\override Score.StemTremolo.id = #stemtremolo-id
\override Score.StringNumber.id = #stringnumber-id
\override Score.StrokeFinger.id = #strokefinger-id
\override Score.SustainPedal.id = #sustainpedal-id
\override Score.SustainPedalLineSpanner.id = #sustainpedallinespanner-id
\override Score.System.id = #system-id
\override Score.SystemStartBar.id = #systemstartbar-id
\override Score.SystemStartBrace.id = #systemstartbrace-id
\override Score.SystemStartBracket.id = #systemstartbracket-id
\override Score.SystemStartSquare.id = #systemstartsquare-id
\override Score.TabNoteHead.id = #tabnotehead-id
\override Score.TextScript.id = #textscript-id
\override Score.TextSpanner.id = #textspanner-id
\override Score.Tie.id = #tie-id
\override Score.TieColumn.id = #tiecolumn-id
\override Score.TimeSignature.id = #timesignature-id
\override Score.TrillPitchAccidental.id = #trillpitchaccidental-id
\override Score.TrillPitchGroup.id = #trillpitchgroup-id
\override Score.TrillPitchHead.id = #trillpitchhead-id
\override Score.TrillSpanner.id = #trillspanner-id
\override Score.TupletBracket.id = #tupletbracket-id
\override Score.TupletNumber.id = #tupletnumber-id
\override Score.UnaCordaPedal.id = #unacordapedal-id
\override Score.UnaCordaPedalLineSpanner.id = #unacordapedallinespanner-id
\override Score.VaticanaLigature.id = #vaticanaligature-id
\override Score.VerticalAlignment.id = #verticalalignment-id
\override Score.VerticalAxisGroup.id = #verticalaxisgroup-id
\override Score.VoiceFollower.id = #voicefollower-id
\override Score.VoltaBracket.id = #voltabracket-id
\override Score.VoltaBracketSpanner.id = #voltabracketspanner-id
